package com.telio.promotion.service;
import com.telio.promotion.dtos.Product;

dialect "mvel"

rule "Calculate promotion 1"
    when
        $product : Product(categoryId == 1)
    then
      	System.out.println("I am running: " + $product.getSkuId());
end